<svg xmlns="http://www.w3.org/2000/svg" width="72" height="15" viewBox="0 0 72 15">
					<path class="character character-t" d="M15 0H0v3h6v12h3V3h6"></path>
					<path class="character character-ru" d="M53 7.5c0 4.144-3.357 7.5-7.5 7.5S38 11.644 38 7.5V0h3v7.5c0 2.485 2.015 4.5 4.5 4.5 2.487 0 4.502-2.015 4.502-4.5V0H53v7.5zM34.1 15l-4.603-6C31.985 9 34 6.986 34 4.5 34 2.017 31.984 0 29.496 0H19v15h3V9h3.716l4.603 6h3.78zM22 6.002v-3h7.498c.832 0 1.5.67 1.5 1.5S30.33 6 29.5 6H22z"></path>
					<path class="character character-e" fill="#F00" d="M57 6h15v3H57zM57 0h15v3H57zM57 12h15v3H57z"></path>
				</svg>
