<?xml version="1.0" encoding="utf-8"?>
<!-- Generator: Adobe Illustrator 20.1.0, SVG Export Plug-In . SVG Version: 6.00 Build 0)  -->
<svg version="1.1" id="expanded" xmlns="http://www.w3.org/2000/svg" xmlns:xlink="http://www.w3.org/1999/xlink" x="0px" y="0px"
	 viewBox="0 0 2224.8 500" style="enable-background:new 0 0 2224.8 500;" xml:space="preserve">
<style type="text/css">
	.st0{fill:#002575;}
	.st1{fill:url(#SVGID_1_);}
</style>
<path class="st0" d="M632,165.3c0-5.7-3.3-9-9-9h-17.1v-24H634c17.5,0,24.4,7.3,24.4,21.6c0,8.1-0.4,13.8-0.4,13.8h0.8
	c0,0,16.3-40.3,70.4-40.3c55,0,89.2,44,89.2,107.5c0,64.7-38.7,107.1-91.6,107.1c-50.1,0-67.2-38.7-67.2-38.7h-0.8
	c0,0,0.8,7.3,0.8,17.9v97.3H632V165.3z M724,317.5c36.2,0,66-30.5,66-82.6c0-50.1-26.5-82.2-64.7-82.2c-34.2,0-66.4,24.4-66.4,82.6
	C658.9,276.4,681.3,317.5,724,317.5L724,317.5z M871,165.3c0-5.7-3.3-9-9-9h-17.1v-24h28.5c17.1,0,24.8,6.9,24.8,23.2v13.8
	c0,5.2-0.3,10.3-0.8,15.5h0.8c9.8-30.9,32.6-54.6,64.7-54.6c3.7,0,7.4,0.4,11,1.2v27.3c-3.4-0.5-6.8-0.8-10.2-0.8
	c-28.9,0-50.5,22.8-59.4,52.9c-3.9,12.9-5.8,26.4-5.7,39.9v86.3H871V165.3z M1099,127.4c59.8,0,108.3,45.6,108.3,106.3
	c0,61.9-48.4,108.3-107.9,108.3c-59.8,0-108.3-46.4-108.3-108.3C991.1,173,1039.5,127.4,1099,127.4L1099,127.4z M1099.4,317.1
	c43.6,0,79.4-35.8,79.4-83.5c0-46.4-35.8-81-79.4-81c-44,0-79.8,34.6-79.8,81C1019.6,281.3,1055.4,317.1,1099.4,317.1L1099.4,317.1z
	 M1261.4,155.5h-26.9v-23.2h27.3V75.7h27.3v56.6h51.3v23.2h-51.3v104.2c0,48,30.5,54.1,46,54.1c3.1,0,6.3-0.2,9.4-0.8v24.8
	c-3.9,0.6-7.9,0.8-11.8,0.8c-23.6,0-71.2-7.7-71.2-76.1L1261.4,155.5z M1498.8,210.9h11.4v-2.4c0-42.7-15.5-57.8-52.9-57.8
	c-10.2,0-39.9,2.9-39.9,17.9v13h-26.5V162c0-28.5,48.9-34.6,66.8-34.6c64.7,0,80.2,34.6,80.2,78.6v98.1c0,6.1,3.3,9,9,9h17.1v24
	h-28.1c-17.5,0-24.4-7.7-24.4-24.4c0-9,0.4-15.1,0.4-15.1h-0.8c0.4,0-16.7,44.4-68,44.4c-34.2,0-69.6-20-69.6-60.7
	C1373.4,213.3,1463.4,210.9,1498.8,210.9L1498.8,210.9z M1447.5,318.3c39.1,0,62.7-40.7,62.7-76.1v-9.4h-11.8
	c-32.2,0-96.5,0.8-96.5,46.8C1401.9,298.8,1417,318.3,1447.5,318.3L1447.5,318.3z M1678.3,127.4c55,0,68,35,68,35h0.8v-7.7
	c0-14.7,6.5-22.4,23.2-22.4h28.5v24h-16.7c-5.7,0-9,2.9-9,9v166.9c0,65.1-48,90.4-98.5,90.4c-23.2-0.2-46.1-5.8-66.8-16.3l10.6-23.2
	c0,0,25.2,14.3,55.4,14.3c39.9,0,71.7-18.7,71.7-64.3v-17.9c0-7.7,0.4-14.7,0.4-14.7h-0.8c-12.2,22.4-32.6,35.4-64.3,35.4
	c-55,0-91.2-43.6-91.2-105S1623.4,127.4,1678.3,127.4z M1745.9,230.8c0-59.8-28.5-78.2-64.7-78.2c-39.9,0-63.1,28.9-63.1,77.8
	s26.5,80.6,66.8,80.6C1717.4,311,1745.9,291.1,1745.9,230.8z M1845.7,165.3c0-5.7-3.3-9-9-9h-17.1v-24h28.9
	c17.5,0,24.8,7.3,24.8,24.8v147c0,6.1,3.3,9,9,9h17.1v24h-28.9c-17.5,0-24.8-7.3-24.8-24.8L1845.7,165.3z M1844.9,50.9h26.9v35
	h-26.9V50.9z M2034.6,127.4c59.9,0,108.3,45.6,108.3,106.3c0,61.9-48.4,108.3-107.9,108.3c-59.8,0-108.3-46.4-108.3-108.3
	C1926.7,173,1975.1,127.4,2034.6,127.4L2034.6,127.4z M2035,317.1c43.6,0,79.4-35.8,79.4-83.5c0-46.4-35.8-81-79.4-81
	c-44,0-79.8,34.6-79.8,81C1955.2,281.3,1991,317.1,2035,317.1L2035,317.1z M477.5,436.2h-395v-34h395V436.2z M91.5,427.2h377v-16
	h-377V427.2z M144,342.5v48h272v-48H144z M412.5,331.5h-265v-265h265V331.5z M156.5,322.5h247v-247h-247V322.5z"/>
<linearGradient id="SVGID_1_" gradientUnits="userSpaceOnUse" x1="155.4315" y1="418.098" x2="403.9226" y2="315.1696">
	<stop  offset="0.1349" style="stop-color:#002575"/>
	<stop  offset="0.2735" style="stop-color:#3264AF"/>
	<stop  offset="0.346" style="stop-color:#1E4A97"/>
	<stop  offset="0.4252" style="stop-color:#0D3684"/>
	<stop  offset="0.5034" style="stop-color:#032979"/>
	<stop  offset="0.5789" style="stop-color:#002575"/>
</linearGradient>
<rect x="144" y="342.5" class="st1" width="272" height="48"/>
<path class="st0" d="M82.5,402.2v34h395v-34H82.5z M468.5,427.2h-377v-16h377V427.2z M147.5,66.5v265h265v-265H147.5z M403.5,322.5
	h-247v-247h247V322.5z"/>
</svg>
